<?xml version="1.0" encoding="utf-8" standalone="no"?>
<!-- Generator: Adobe Illustrator 16.0.0, SVG Export Plug-In . SVG Version: 6.00 Build 0)  -->
<!DOCTYPE svg PUBLIC "-//W3C//DTD SVG 1.1//EN" "http://www.w3.org/Graphics/SVG/1.1/DTD/svg11.dtd">
<svg version="1.1" id="Layer_1" xmlns="http://www.w3.org/2000/svg" xmlns:xlink="http://www.w3.org/1999/xlink" x="0px" y="0px"
	 width="25.888px" height="23.579px" viewBox="0 0 25.888 23.579" enable-background="new 0 0 25.888 23.579" xml:space="preserve" preserveAspectRatio="xMaxYMin meet">
<g>
	<defs>
		<rect id="SVGID_1_" width="25.887" height="23.579"/>
	</defs>
	<clipPath id="SVGID_2_">
		<use xlink:href="#SVGID_1_"  overflow="visible"/>
	</clipPath>
	
		<circle clip-path="url(#SVGID_2_)" fill="none" stroke="#c3c5d2" stroke-width="1.2" stroke-linecap="round" stroke-linejoin="round" stroke-miterlimit="10" cx="13.279" cy="13.308" r="3.813"/>
	
		<path clip-path="" fill="none" stroke="#c3c5d2" stroke-width="1.2" stroke-linecap="round" stroke-linejoin="round" stroke-miterlimit="10" d="
		M25.287,6.917v11.063c0,2.75-2.25,4.999-5,4.999H5.601c-2.75,0-5-2.249-5-4.999V9.104c0-2.75,2.25-5.001,5-5.001h4.208"/>
	
		<path clip-path="url(#SVGID_2_)" fill="none" stroke="#c3c5d2" stroke-width="1.2" stroke-linecap="round" stroke-linejoin="round" stroke-miterlimit="10" d="
		M16.746,4.104h4.356c0.069,0,0.138,0.001,0.205,0.004"/>
	
		<path clip-path="url(#SVGID_2_)" fill="none" stroke="#c3c5d2" stroke-width="1.2" stroke-linecap="round" stroke-linejoin="round" stroke-miterlimit="10" d="
		M9.851,3.792v-1.3c0-1.041,0.851-1.892,1.891-1.892h3.074c1.04,0,1.892,0.851,1.892,1.892v1.3"/>
</g>
</svg>
