<?xml version="1.0" encoding="utf-8"?>
<!-- Generator: Adobe Illustrator 16.0.0, SVG Export Plug-In . SVG Version: 6.00 Build 0)  -->
<!DOCTYPE svg PUBLIC "-//W3C//DTD SVG 1.1//EN" "http://www.w3.org/Graphics/SVG/1.1/DTD/svg11.dtd">
<svg version="1.1" id="Layer_1" xmlns="http://www.w3.org/2000/svg" xmlns:xlink="http://www.w3.org/1999/xlink" x="0px" y="0px"
	 width="20.662px" height="22.264px" viewBox="0 0 20.662 22.264" enable-background="new 0 0 20.662 22.264" xml:space="preserve">
<g>
	<defs>
		<rect id="SVGID_1_" y="0" width="20.662" height="22.264"/>
	</defs>
	<clipPath id="SVGID_2_">
		<use xlink:href="#SVGID_1_"  overflow="visible"/>
	</clipPath>
	
		<path clip-path="" fill="none" stroke="red" stroke-linecap="round" stroke-linejoin="round" stroke-width="1.0" stroke-miterlimit="10" d="
		M10.59,0.5c0,0-2.771,6.814-4.342,8.694C4.676,11.074,0.5,13.585,0.5,13.585s1.913,5.18,0.776,8.18
		c0.897-1.806,7.336-2.945,7.989-2.921c0.521-2.21,0.799-6.008,1.346-6.858C12.083,9.695,20.162,0.5,20.162,0.5"/>
	
		<path clip-path="url(#SVGID_2_)" fill="none" stroke="red" stroke-linecap="round" stroke-linejoin="round" stroke-width="1.0" stroke-miterlimit="10" d="
		M4.615,6.962c0,0,0.924,2.019,3.938,3.771c2.96,1.719,5.208,1.395,5.208,1.395"/>
	
		<line clip-path="url(#SVGID_2_)" fill="none" stroke="red" stroke-linecap="round" stroke-linejoin="round" stroke-width="1.0" stroke-miterlimit="10" x1="6.103" y1="14.436" x2="1.32" y2="21.664"/>
</g>
</svg>
