<?xml version="1.0" encoding="utf-8"?>
<!-- Generator: Adobe Illustrator 16.0.0, SVG Export Plug-In . SVG Version: 6.00 Build 0)  -->
<!DOCTYPE svg PUBLIC "-//W3C//DTD SVG 1.1//EN" "http://www.w3.org/Graphics/SVG/1.1/DTD/svg11.dtd">
<svg version="1.1" id="Layer_1" xmlns="http://www.w3.org/2000/svg" xmlns:xlink="http://www.w3.org/1999/xlink" x="0px" y="0px"
	 width="33.833px" height="33.833px" viewBox="0 0 33.833 33.833" enable-background="new 0 0 33.833 33.833" xml:space="preserve">
<g>
	<defs>
		<rect id="SVGID_1_" y="0" width="33.833" height="33.833"/>
	</defs>
	<clipPath id="SVGID_2_">
		<use xlink:href="#SVGID_1_"  overflow="visible"/>
	</clipPath>
	
		<path clip-path="url(#SVGID_2_)" fill="none" stroke="#ff0006" stroke-width="2" stroke-linecap="round" stroke-linejoin="round" stroke-miterlimit="10" d="
		M3.5,25.25C1.833,22.75,1,19.833,1,16.917C1,8.126,8.126,1,16.917,1c8.79,0,15.916,7.126,15.916,15.917
		c0,8.791-7.126,15.917-15.916,15.917c-3.615,0-6.949-1.205-9.621-3.236"/>
	<path clip-path="url(#SVGID_2_)" fill="#ff0006" stroke="none" d="M20.229,21.335c-0.236,0.216-0.53,0.447-0.882,0.692c-0.35,0.246-0.729,0.474-1.136,0.68
		c-0.407,0.207-0.822,0.379-1.245,0.517s-0.823,0.206-1.205,0.206c-0.341,0-0.628-0.047-0.861-0.142
		c-0.233-0.096-0.421-0.229-0.566-0.399c-0.144-0.17-0.247-0.378-0.309-0.624c-0.063-0.246-0.094-0.517-0.094-0.812
		c0-0.413,0.046-0.896,0.138-1.446c0.189-1.14,0.311-1.781,0.365-1.921c0.089-0.28,0.066,0.031,0.334-0.93
		c0.248-0.784,0.402-1.294,0.46-1.53c0.033-0.166,0.123-0.315,0.272-0.448c0.135-0.12,0.288-0.217,0.459-0.293
		c0.171-0.077,0.348-0.133,0.531-0.169c0.184-0.037,0.35-0.055,0.498-0.055c0.271,0,0.454,0.051,0.551,0.152
		c0.097,0.102,0.146,0.238,0.146,0.409c0,0.144-0.034,0.348-0.102,0.611c-0.067,0.263-0.144,0.564-0.229,0.901
		s-0.215,0.77-0.384,1.3c-0.169,0.529-0.082,0.051-0.145,0.424c-0.062,0.374-0.139,0.745-0.234,1.114
		c-0.094,0.368-0.141,0.703-0.141,1.006c0,0.294,0.033,0.528,0.098,0.703c0.066,0.173,0.2,0.26,0.404,0.26
		c0.236,0,0.498-0.082,0.787-0.246c0.288-0.164,0.58-0.362,0.875-0.595c0.296-0.233,0.584-0.475,0.866-0.724
		c0.281-0.249,0.531-0.462,0.748-0.64V21.335z M16.08,10.076c0-0.138,0.03-0.295,0.089-0.469c0.061-0.174,0.157-0.338,0.29-0.491
		c0.134-0.153,0.313-0.283,0.536-0.387c0.223-0.105,0.502-0.158,0.835-0.158c0.208,0,0.405,0.024,0.589,0.072
		c0.186,0.048,0.345,0.122,0.482,0.221c0.137,0.099,0.246,0.23,0.326,0.392s0.12,0.354,0.12,0.577c0,0.204-0.032,0.402-0.098,0.594
		c-0.065,0.193-0.17,0.364-0.313,0.514c-0.144,0.151-0.323,0.272-0.54,0.365c-0.218,0.094-0.479,0.14-0.781,0.14
		c-0.524,0-0.911-0.125-1.161-0.375C16.205,10.822,16.08,10.49,16.08,10.076"/>
</g>
</svg>
