<?xml version="1.0" encoding="utf-8"?>
<!-- Generator: Adobe Illustrator 16.0.0, SVG Export Plug-In . SVG Version: 6.00 Build 0)  -->
<!DOCTYPE svg PUBLIC "-//W3C//DTD SVG 1.1//EN" "http://www.w3.org/Graphics/SVG/1.1/DTD/svg11.dtd">
<svg version="1.1" id="Layer_1" xmlns="http://www.w3.org/2000/svg" xmlns:xlink="http://www.w3.org/1999/xlink" x="0px" y="0px"
	 width="22.867px" height="25.348px" viewBox="0 0 22.867 25.348" enable-background="new 0 0 22.867 25.348" xml:space="preserve">
<g>
	<defs>
		<rect id="SVGID_1_" width="22.867" height="25.348"/>
	</defs>
	<clipPath id="SVGID_2_">
		<use xlink:href="#SVGID_1_"  overflow="visible"/>
	</clipPath>
	
		<path clip-path="url(#SVGID_2_)" fill="none" stroke="#000000" stroke-width="1.2" stroke-linecap="round" stroke-linejoin="round" stroke-miterlimit="10" d="
		M0.6,18.6V5.142C0.6,2.017,1.892,0.6,5.558,0.6h12.125c2,0,4.584,0.792,4.584,5.292v10.041c0,1.334-1.334,8.334-6.334,8.667
		c-5,0.333-15,0-15,0"/>
	
		<polyline clip-path="url(#SVGID_2_)" fill="none" stroke="#000000" stroke-width="1.2" stroke-linecap="round" stroke-linejoin="round" stroke-miterlimit="10" points="
		17.373,23.267 16.6,17.858 22.267,16.312 	"/>
	<path clip-path="url(#SVGID_2_)" d="M17.253,12.512v-1.424l-1.695-0.277c-0.1-0.401-0.258-0.778-0.465-1.124l0.987-1.408
		l-1.008-1.006l-1.389,1c-0.347-0.21-0.726-0.37-1.13-0.47l-0.296-1.687h-1.424L10.56,7.797c-0.404,0.099-0.786,0.257-1.133,0.465
		L8.041,7.273L7.035,8.279l0.974,1.394c-0.211,0.349-0.371,0.73-0.472,1.137l-1.674,0.278v1.424l1.672,0.296
		c0.1,0.407,0.261,0.788,0.472,1.138l-0.988,1.381l1.007,1.007l1.395-0.977c0.349,0.21,0.729,0.367,1.134,0.468l0.279,1.681h1.424
		l0.299-1.686c0.403-0.102,0.782-0.263,1.128-0.473l1.405,0.986l1.006-1.007l-1.002-1.393c0.207-0.347,0.365-0.724,0.464-1.125
		L17.253,12.512z M11.558,13.797c-1.097,0-1.986-0.889-1.986-1.986c0-1.096,0.889-1.985,1.986-1.985
		c1.096,0,1.985,0.889,1.985,1.985C13.543,12.908,12.653,13.797,11.558,13.797"/>
</g>
</svg>
