<?xml version="1.0" encoding="utf-8"?>
<!-- Generator: Adobe Illustrator 16.0.0, SVG Export Plug-In . SVG Version: 6.00 Build 0)  -->
<!DOCTYPE svg PUBLIC "-//W3C//DTD SVG 1.1//EN" "http://www.w3.org/Graphics/SVG/1.1/DTD/svg11.dtd">
<svg version="1.1" id="Layer_1" xmlns="http://www.w3.org/2000/svg" xmlns:xlink="http://www.w3.org/1999/xlink" x="0px" y="0px"
	 width="512px" height="337.119px" viewBox="0 0 512 337.119" enable-background="new 0 0 512 337.119" xml:space="preserve">
<g>
	<defs>
		<rect id="SVGID_1_" width="512" height="337.119"/>
	</defs>
	<clipPath id="SVGID_2_">
		<use xlink:href="#SVGID_1_"  overflow="visible"/>
	</clipPath>
	<path clip-path="url(#SVGID_2_)" fill="#fff" stroke="#e93124" stroke-width="30" d="M512,337.119c-9.625-7.105-19.193-14.287-28.884-21.301
		c-43.093-31.193-88.754-57.597-139.607-74.163c-30.121-9.813-60.933-15.926-92.746-14.352c-11.887,0.589-23.669,3.27-35.5,4.99
		c-3.399,0.495-4.377,2.317-4.356,5.813c0.167,27.32,0.093,54.643,0.093,81.965c0,1.789,0,3.579,0,6.508
		c-7.752-5.502-15.01-10.115-21.672-15.469c-37.903-30.46-75.604-61.172-113.495-91.647C50.661,199.218,25.285,179.226,0,159.119
		c0-1,0-2,0-3C68.609,105.228,137.218,54.336,205.834,3.454c1.426-1.057,2.936-2.002,5.077-3.454v84.624
		c7.404,0.458,14.343,0.765,21.26,1.334c66.846,5.495,124.444,32.34,174.123,76.588c43.057,38.35,76.242,83.933,96.952,138.038
		c3.771,9.853,5.878,20.34,8.754,30.535V337.119z"/>
</g>
</svg>
