<?xml version="1.0" encoding="utf-8"?>
<!-- Generator: Adobe Illustrator 16.0.0, SVG Export Plug-In . SVG Version: 6.00 Build 0)  -->
<!DOCTYPE svg PUBLIC "-//W3C//DTD SVG 1.1//EN" "http://www.w3.org/Graphics/SVG/1.1/DTD/svg11.dtd">
<svg version="1.1" id="Layer_1" xmlns="http://www.w3.org/2000/svg" xmlns:xlink="http://www.w3.org/1999/xlink" x="0px" y="0px"
	 width="46.5px" height="46.5px" viewBox="0 0 46.5 46.5" enable-background="new 0 0 46.5 46.5" xml:space="preserve">
<g>
	<defs>
		<rect id="SVGID_1_" width="46.5" height="46.5"/>
	</defs>
	<clipPath id="SVGID_2_">
		<use xlink:href="#SVGID_1_"  overflow="visible"/>
	</clipPath>
	
		<path clip-path="url(#SVGID_2_)" fill="none" stroke="#fff" stroke-width="2.5" stroke-linecap="round" stroke-linejoin="round" stroke-miterlimit="10" d="
		M6.75,37.875C2.625,33.5,1.25,26.789,1.25,23.25c0-12.15,9.85-22,22-22c12.15,0,22,9.85,22,22c0,12.15-9.85,22-22,22
		c-3.7,0-7.187-0.913-10.247-2.527"/>
	
		<path clip-path="url(#SVGID_2_)" fill="none" stroke="#fff" stroke-width="2.5" stroke-linecap="round" stroke-linejoin="round" stroke-miterlimit="10" d="
		M20.292,18.208C19.581,17.888,19,18.263,19,19.042v9.416c0,0.779,0.568,1.128,1.263,0.773l10.224-5.213
		c0.694-0.354,0.682-0.906-0.029-1.226L20.292,18.208z"/>
</g>
</svg>
